-------------------------------------------------------------------------------
Test set: br.com.base2.thediary.features.thresholds.OxygenSaturationThresholdTest
-------------------------------------------------------------------------------
Tests run: 1, Failures: 0, Errors: 0, Skipped: 0, Time elapsed: 199.203 sec
