-------------------------------------------------------------------------------
Test set: br.com.base2.thediary.features.taskcalendar.TaskCalendarPatientTest
-------------------------------------------------------------------------------
Tests run: 2, Failures: 0, Errors: 0, Skipped: 0, Time elapsed: 103.11 sec
