br/com/base2/thediary/features/thresholds/BodyFatThresholdTest.class
br/com/base2/thediary/features/ownerdiary/ActiveEnergyModuleTest.class
br/com/base2/thediary/features/taskcalendar/TaskCalendarCareManagerTest.class
br/com/base2/thediary/features/thresholds/SleepThresholdTest.class
br/com/base2/thediary/features/ownerdiary/BloodGlucoseModuleTest.class
br/com/base2/thediary/features/ownerdiary/BodyTemperatureModuleTest.class
br/com/base2/thediary/features/thresholds/WeightThresholdTest.class
br/com/base2/thediary/features/thresholds/BloodGlucoseThresholdTest.class
br/com/base2/thediary/features/database/DatabaseConnTest.class
br/com/base2/thediary/features/thresholds/BodyTemperatureThresholdTest.class
br/com/base2/thediary/features/thresholds/WaterIntakeThresholdTest.class
br/com/base2/thediary/features/login/LoginTest.class
br/com/base2/thediary/features/thresholds/BodyMassIndexThresholdTest.class
br/com/base2/thediary/features/thresholds/HeightThresholdTest.class
br/com/base2/thediary/features/thresholds/WaistCircumferenceThresholdTest.class
CaregiverTest.class
br/com/base2/thediary/features/account/AccountTest.class
br/com/base2/thediary/features/thresholds/BloodPressureThresholdTest.class
br/com/base2/thediary/features/ownerdashboard/NotesTest.class
br/com/base2/thediary/features/owners/OwnersTest.class
br/com/base2/thediary/features/thresholds/HeartRateThresholdTest.class
br/com/base2/thediary/features/thresholds/OxygenSaturationThresholdTest.class
TestRun.class
br/com/base2/thediary/features/taskcalendar/TaskCalendarPatientTest.class
